
#################### PROJECT STRUCTURE ####################


====================     N O D E S     ====================

-- Directory 'ast' found.

Number of nodes: 24

====================     SEMANTICS     ====================

-- Directory 'targets' found.

====================     SCANNER       ====================

-- Scanner specification found.

====================      PARSER       ====================

-- Parser specification found.
41 terminals, 21 nonterminals
93 grammar rules, 159 states
-- grammar has no conflics

====================     COMPILING     ====================

-- successfully generated 'zu'.

##################      TEST RESULTS      ###################
     OK - compiler runs; KO - compiler (partially) fails     
  1 - compiler produces ASM file from zu program            
  2 - yasm is able to produce object file (.o) from ASM file 
  3 - linker is able to produce executable program           
  4 - program runs and returns 0 on sucessful exit           
  5 - program output matches expected output                 
       (tab, space, and newline chars are ignored)           

                                  C   L   D
                                  O A I R I
                                  M S N U F
                                  P M K N F

A-01-1-N-ok................... OK 1 2 3 4 5
A-02-2-N-ok................... OK 1 2 3 4  
A-03-3-N-ok................... OK 1 2 3 4  
A-04-4-N-ok................... OK 1 2 3 4 5
A-05-5-N-ok................... OK 1 2 3 4 5
A-06-6-N-ok................... OK 1 2 3 4 5
A-07-7-N-ok................... OK 1 2 3 4 5
A-08-8-N-ok................... OK 1 2 3 4 5
B-01-9-N-ok................... OK 1 2 3 4 5
B-02-10-N-ok.................. OK 1 2 3 4 5
B-03-11-N-ok.................. OK 1 2 3 4 5
B-04-12-N-ok.................. OK 1 2 3 4 5
B-05-13-N-ok.................. OK 1 2 3 4 5
B-06-14-N-ok.................. OK 1 2 3 4 5
B-07-15-N-ok.................. OK 1 2 3 4 5
B-08-16-N-ok.................. OK 1 2 3 4 5
B-09-17-N-ok.................. OK 1 2 3 4 5
B-10-18-N-ok.................. OK 1 2 3 4 5
B-11-19-N-ok.................. OK 1 2 3 4 5
B-12-20-N-ok.................. OK 1 2 3 4 5
B-13-21-N-ok.................. OK 1 2 3 4 5
B-14-22-N-ok.................. KO 1 2 3    
B-15-23-N-ok.................. KO 1 2 3    
B-16-24-N-ok.................. OK 1 2 3 4 5
B-17-25-N-ok.................. OK 1 2 3 4 5
B-20-26-N-ok.................. OK 1 2 3 4 5
B-21-27-N-ok.................. OK 1 2 3 4 5
B-22-28-N-ok.................. OK 1 2 3 4 5
B-23-29-N-ok.................. OK 1 2 3 4 5
B-24-30-N-ok.................. OK 1 2 3 4 5
B-25-31-N-ok.................. OK 1 2 3 4 5
C-01-32-N-ok.................. OK 1 2 3 4  
C-02-33-N-ok.................. OK 1 2 3 4  
C-03-34-N-ok.................. OK 1 2 3 4  
C-04-35-N-ok.................. OK 1 2 3 4  
C-05-36-N-ok.................. OK 1 2 3 4  
C-06-37-N-ok.................. OK 1 2 3 4  
C-07-38-N-ok.................. OK 1 2 3 4  
C-08-39-N-ok.................. OK 1 2 3 4  
C-09-40-N-ok.................. OK 1 2 3 4  
C-10-41-N-ok.................. OK 1 2 3 4  
C-11-42-N-ok.................. OK 1 2 3 4  
C-12-43-N-ok.................. OK 1 2 3 4  
C-13-44-N-ok.................. OK 1 2 3 4  
C-14-45-N-ok.................. KO 1 2 3    
C-15-46-N-ok.................. KO 1 2 3    
C-16-47-N-ok.................. OK 1 2 3 4  
C-17-48-N-ok.................. KO 1 2 3    
C-18-49-N-ok.................. KO 1 2 3    
C-19-50-N-ok.................. OK 1 2 3 4  
C-20-51-N-ok.................. OK 1 2 3 4  
D-01-52-N-ok.................. OK 1 2 3 4 5
D-02-53-N-ok.................. OK 1 2 3 4 5
D-03-54-N-ok.................. OK 1 2 3 4 5
E-01-55-N-ok.................. OK 1 2 3 4  
E-02-56-N-ok.................. OK 1 2 3  