
#################### PROJECT STRUCTURE ####################


====================     N O D E S     ====================

-- Directory 'ast' found.

Number of nodes: 23

====================     SEMANTICS     ====================

-- Directory 'targets' found.

====================     SCANNER       ====================

-- Scanner specification found.

!! USES BAD FUNCTIONS (some of these uses are penalized -- index may not exist): 
 * strcmp

More information: Secção [Projecto] (Fénix) 

====================      PARSER       ====================

-- Parser specification found.
40 terminals, 13 nonterminals
35 grammar rules, 51 states
-- grammar has no conflics
!! PARSER CONTAINS EMPTY RULES

====================     COMPILING     ====================

-- successfully generated 'zu'.

##################      TEST RESULTS      ###################
     OK - compiler runs; KO - compiler (partially) fails     
  1 - compiler produces ASM file from zu program            
  2 - yasm is able to produce object file (.o) from ASM file 
  3 - linker is able to produce executable program           
  4 - program runs and returns 0 on sucessful exit           
  5 - program output matches expected output                 
       (tab, space, and newline chars are ignored)           

                                  C   L   D
                                  O A I R I
                                  M S N U F
                                  P M K N F

A-01-1-N-ok................... KO
A-02-2-N-ok................... KO
A-03-3-N-ok................... KO
A-04-4-N-ok................... KO
A-05-5-N-ok................... KO
A-06-6-N-ok................... KO
A-07-7-N-ok................... KO
A-08-8-N-ok................... KO
B-01-9-N-ok................... KO
B-02-10-N-ok.................. KO
B-03-11-N-ok.................. KO
B-04-12-N-ok.................. KO
B-05-13-N-ok.................. KO
B-06-14-N-ok.................. KO
B-07-15-N-ok.................. KO
B-08-16-N-ok.................. KO
B-09-17-N-ok.................. KO
B-10-18-N-ok.................. KO
B-11-19-N-ok.................. KO
B-12-20-N-ok.................. KO
B-13-21-N-ok.................. KO
B-14-22-N-ok.................. KO
B-15-23-N-ok.................. KO
B-16-24-N-ok.................. KO
B-17-25-N-ok.................. KO
B-20-26-N-ok.................. KO
B-21-27-N-ok.................. KO
B-22-28-N-ok.................. KO
B-23-29-N-ok.................. KO
B-24-30-N-ok.................. KO
B-25-31-N-ok.................. KO
C-01-32-N-ok.................. KO
C-02-33-N-ok.................. KO
C-03-34-N-ok.................. KO
C-04-35-N-ok.................. KO
C-05-36-N-ok.................. KO
C-06-37-N-ok.................. KO
C-07-38-N-ok.................. KO
C-08-39-N-ok.................. KO
C-09-40-N-ok.................. KO
C-10-41-N-ok.................. KO
C-11-42-N-ok.................. KO
C-12-43-N-ok.................. KO
C-13-44-N-ok.................. KO
C-14-45-N-ok.................. KO
C-15-46-N-ok.................. KO
C-16-47-N-ok.................. KO
C-17-48-N-ok.................. KO
C-18-49-N-ok.................. KO
C-19-50-N-ok.................. KO
C-20-51-N-ok.................. KO
D-01-52-N-ok.................. KO
D-02-53-N-ok.................. KO
D-03-54-N-ok.................. KO
E-01-55-N-ok.................. KO
E-02-56-N-ok.................. KO
E-03-57-N-ok.................. KO
E-04-58-N-ok.................. KO
E-05-59-N-ok.................. KO
E-06-60-N-ok.................. KO
E-07-61-N-ok.................. KO
E-08-62-N-ok.................. KO
E-09-63-N-ok.................. KO
E-10-64-N-ok.................. KO
E-11-65-N-ok.................. KO
F-01-66-N-ok.................. KO
F-02-67-N-ok.................. KO
F-03-68-N-ok.................. KO
F-04-69-N-ok.................. KO
J-01-70-N-ok.................. KO
J-02-71-N-ok.................. KO
J-03-72-N-ok.................. KO
J-04-73-N-ok.................. KO
J-05-74-N-ok.................. KO
J-06-75-N-ok.................. KO
J-07-76-N-ok.................. KO
J-08-77-N-ok.................. KO
J-09-78-N-ok.................. KO
K-01-79-N-ok.................. KO
K-02-80-N-ok.................. KO
K-03-81-N-ok.................. KO
K-04-82-N-ok.................. KO
K-05-83-N-ok.................. KO
K-06-84-N-ok.................. KO
K-07-85-N-ok.................. KO
K-08-86-N-ok.................. KO
K-09-87-N-ok.................. KO
K-10-88-N-ok.................. KO
K-11-89-N-ok.................. KO
L-01-90-N-ok.................. KO
L-02-91-N-ok.................. KO
L-03-92-N-ok.................. KO
O-01-93-N-ok.................. KO
O-02-94-N-ok.................. KO
O-03-95-N-ok.................. KO
P-01-96-N-ok.................. KO
P-02-97-N-ok.................. KO
P-03-98-N-ok.................. KO
P-04-99-N-ok.................. KO
P-05-100-N-ok................. KO
P-06-101-N-ok................. KO
P-07-102-N-ok................. KO
Q-01-103-N-ok................. KO
Q-02-104-N-ok................. KO
Q-03-105-N-ok................. KO
Q-04-106-N-ok................. KO
Q-05-107-N-ok................. KO
Q-06-108-N-ok................. KO
Q-07-109-N-ok................. KO

#####################     SUMMARY     #####################

Group: Points (Point/Test)
A: 0. (.12500000000000000000000000000000000000000000000000)
B: 0. (.04347826086956521739130434782608695652173913043478)
C: 0. (.05000000000000000000000000000000000000000000000000)
D: 0. (.33333333333333333333333333333333333333333333333333)
E: 0. (.09090909090909090909090909090909090909090909090909)
F: 0. (.25000000000000000000000000000000000000000000000000)
J: 0. (.11111111111111111111111111111111111111111111111111)
K: 0. (.09090909090909090909090909090909090909090909090909)
L: 0. (.33333333333333333333333333333333333333333333333333)
O: 0. (.33333333333333333333333333333333333333333333333333)
P: 0. (.14285714285714285714285714285714285714285714285714)
Q: 0. (.14285714285714285714285714285714285714285714285714)
Total: 0

Number of at least "OK" tests: 0/109

