digraph "simple::factory"
{
  edge [fontname="Helvetica",fontsize="10",labelfontname="Helvetica",labelfontsize="10"];
  node [fontname="Helvetica",fontsize="10",shape=record];
  Node1 [label="{simple::factory\n||# factory()\l}",height=0.2,width=0.4,color="black", fillcolor="grey75", style="filled", fontcolor="black"];
  Node2 -> Node1 [dir="back",color="midnightblue",fontsize="10",style="solid",arrowtail="onormal",fontname="Helvetica"];
  Node2 [label="{cdk::yy_factory\< simple\l_scanner \>\n||}",height=0.2,width=0.4,color="grey75", fillcolor="white", style="filled"];
  Node1 -> Node1 [color="grey25",fontsize="10",style="solid",label=" -_self" ,arrowhead="odiamond",fontname="Helvetica"];
}
