digraph "simple::english_writer::do_neg_node"
{
  edge [fontname="Helvetica",fontsize="10",labelfontname="Helvetica",labelfontsize="10"];
  node [fontname="Helvetica",fontsize="10",shape=record];
  rankdir="LR";
  Node1 [label="simple::english_writer\l::do_neg_node",height=0.2,width=0.4,color="black", fillcolor="grey75", style="filled", fontcolor="black"];
  Node1 -> Node2 [color="midnightblue",fontsize="10",style="solid",fontname="Helvetica"];
  Node2 [label="simple::english_writer\l::processUnaryExpression",height=0.2,width=0.4,color="black", fillcolor="white", style="filled",URL="$classsimple_1_1english__writer.html#a7a5442849fe2a176b600afb69e827933"];
}
