digraph "simple::c_writer::do_assignment_node"
{
  edge [fontname="Helvetica",fontsize="10",labelfontname="Helvetica",labelfontsize="10"];
  node [fontname="Helvetica",fontsize="10",shape=record];
  rankdir="LR";
  Node1 [label="simple::c_writer::do\l_assignment_node",height=0.2,width=0.4,color="black", fillcolor="grey75", style="filled", fontcolor="black"];
  Node1 -> Node2 [color="midnightblue",fontsize="10",style="solid",fontname="Helvetica"];
  Node2 [label="simple::lvalue_node\l::accept",height=0.2,width=0.4,color="black", fillcolor="white", style="filled",URL="$classsimple_1_1lvalue__node.html#a3b7448f6fb9feb2269abaece29931b75"];
  Node2 -> Node3 [color="midnightblue",fontsize="10",style="solid",fontname="Helvetica"];
  Node3 [label="basic_ast_visitor::\ldo_lvalue_node",height=0.2,width=0.4,color="black", fillcolor="white", style="filled",URL="$classbasic__ast__visitor.html#ad75c60b05a05b69760a1e0e19f5f0e75"];
  Node1 -> Node4 [color="midnightblue",fontsize="10",style="solid",fontname="Helvetica"];
  Node4 [label="simple::assignment\l_node::lvalue",height=0.2,width=0.4,color="black", fillcolor="white", style="filled",URL="$classsimple_1_1assignment__node.html#a252caa7668723625ab405acbe229269c"];
  Node1 -> Node5 [color="midnightblue",fontsize="10",style="solid",fontname="Helvetica"];
  Node5 [label="basic_ast_visitor::os",height=0.2,width=0.4,color="black", fillcolor="white", style="filled",URL="$classbasic__ast__visitor.html#ab81ab147fe687470c3e8f9ebfd2ca6f9"];
  Node1 -> Node6 [color="midnightblue",fontsize="10",style="solid",fontname="Helvetica"];
  Node6 [label="simple::assignment\l_node::rvalue",height=0.2,width=0.4,color="black", fillcolor="white", style="filled",URL="$classsimple_1_1assignment__node.html#a8b9c8ee6f5e1cf3e741b1fc93bbcd714"];
}
