digraph "simple::xml_writer::do_div_node"
{
  edge [fontname="Helvetica",fontsize="10",labelfontname="Helvetica",labelfontsize="10"];
  node [fontname="Helvetica",fontsize="10",shape=record];
  rankdir="LR";
  Node1 [label="simple::xml_writer\l::do_div_node",height=0.2,width=0.4,color="black", fillcolor="grey75", style="filled", fontcolor="black"];
  Node1 -> Node2 [color="midnightblue",fontsize="10",style="solid",fontname="Helvetica"];
  Node2 [label="simple::xml_writer\l::processBinaryExpression",height=0.2,width=0.4,color="black", fillcolor="white", style="filled",URL="$classsimple_1_1xml__writer.html#ab1a45898b9e6f477febebaf6d3f814a2"];
  Node2 -> Node3 [color="midnightblue",fontsize="10",style="solid",fontname="Helvetica"];
  Node3 [label="simple::xml_writer\l::openTag",height=0.2,width=0.4,color="black", fillcolor="white", style="filled",URL="$classsimple_1_1xml__writer.html#a7f674d53fc10d9ecfc9a6369d5a65d6d"];
  Node3 -> Node4 [color="midnightblue",fontsize="10",style="solid",fontname="Helvetica"];
  Node4 [label="basic_ast_visitor::os",height=0.2,width=0.4,color="black", fillcolor="white", style="filled",URL="$classbasic__ast__visitor.html#ab81ab147fe687470c3e8f9ebfd2ca6f9"];
  Node2 -> Node5 [color="midnightblue",fontsize="10",style="solid",fontname="Helvetica"];
  Node5 [label="simple::xml_writer\l::closeTag",height=0.2,width=0.4,color="black", fillcolor="white", style="filled",URL="$classsimple_1_1xml__writer.html#a661cd7c508b612a8789ed66e23ad8ff8"];
  Node5 -> Node4 [color="midnightblue",fontsize="10",style="solid",fontname="Helvetica"];
}
