digraph "simple::type_checker::do_print_node"
{
  edge [fontname="Helvetica",fontsize="10",labelfontname="Helvetica",labelfontsize="10"];
  node [fontname="Helvetica",fontsize="10",shape=record];
  rankdir="LR";
  Node1 [label="simple::type_checker\l::do_print_node",height=0.2,width=0.4,color="black", fillcolor="grey75", style="filled", fontcolor="black"];
  Node1 -> Node2 [color="midnightblue",fontsize="10",style="solid",fontname="Helvetica"];
  Node2 [label="simple::print_node\l::argument",height=0.2,width=0.4,color="black", fillcolor="white", style="filled",URL="$classsimple_1_1print__node.html#aeb4e81e2fefe12a78203ec6221f9751b"];
}
