digraph "simple::c_writer"
{
  edge [fontname="Helvetica",fontsize="10",labelfontname="Helvetica",labelfontsize="10"];
  node [fontname="Helvetica",fontsize="10",shape=record];
  Node1 [label="{simple::c_writer\n|- _symtab\l|+ c_writer()\l+ ~c_writer()\l+ do_sequence_node()\l+ do_integer_node()\l+ do_string_node()\l+ do_neg_node()\l+ do_add_node()\l+ do_sub_node()\l+ do_mul_node()\l+ do_div_node()\land 17 more...\l# processUnaryExpression()\l# do_binary_expression_node()\l}",height=0.2,width=0.4,color="black", fillcolor="grey75", style="filled", fontcolor="black"];
  Node2 -> Node1 [dir="back",color="midnightblue",fontsize="10",style="solid",arrowtail="onormal",fontname="Helvetica"];
  Node2 [label="{basic_ast_visitor\n|# _compiler\l|+ ~basic_ast_visitor()\l+ do_nil_node()\l+ do_data_node()\l+ do_composite_node()\l+ do_sequence_node()\l+ do_integer_node()\l+ do_double_node()\l+ do_string_node()\l+ do_identifier_node()\l+ do_neg_node()\land 21 more...\l# basic_ast_visitor()\l# debug()\l# os()\l}",height=0.2,width=0.4,color="black", fillcolor="white", style="filled",URL="$classbasic__ast__visitor.html"];
}
