digraph "simple::postfix_writer::do_rvalue_node"
{
  edge [fontname="Helvetica",fontsize="10",labelfontname="Helvetica",labelfontsize="10"];
  node [fontname="Helvetica",fontsize="10",shape=record];
  rankdir="LR";
  Node1 [label="simple::postfix_writer\l::do_rvalue_node",height=0.2,width=0.4,color="black", fillcolor="grey75", style="filled", fontcolor="black"];
  Node1 -> Node2 [color="midnightblue",fontsize="10",style="solid",fontname="Helvetica"];
  Node2 [label="simple::rvalue_node\l::lvalue",height=0.2,width=0.4,color="black", fillcolor="white", style="filled",URL="$classsimple_1_1rvalue__node.html#aebfbbc9fb037dc1f8561781955adc6f5"];
}
