digraph "simple::lvalue_node::accept"
{
  edge [fontname="Helvetica",fontsize="10",labelfontname="Helvetica",labelfontsize="10"];
  node [fontname="Helvetica",fontsize="10",shape=record];
  rankdir="LR";
  Node1 [label="simple::lvalue_node\l::accept",height=0.2,width=0.4,color="black", fillcolor="grey75", style="filled", fontcolor="black"];
  Node1 -> Node2 [color="midnightblue",fontsize="10",style="solid",fontname="Helvetica"];
  Node2 [label="basic_ast_visitor::\ldo_lvalue_node",height=0.2,width=0.4,color="black", fillcolor="white", style="filled",URL="$classbasic__ast__visitor.html#ad75c60b05a05b69760a1e0e19f5f0e75"];
}
