digraph "simple::interpreter::do_read_node"
{
  edge [fontname="Helvetica",fontsize="10",labelfontname="Helvetica",labelfontsize="10"];
  node [fontname="Helvetica",fontsize="10",shape=record];
  rankdir="LR";
  Node1 [label="simple::interpreter\l::do_read_node",height=0.2,width=0.4,color="black", fillcolor="grey75", style="filled", fontcolor="black"];
  Node1 -> Node2 [color="midnightblue",fontsize="10",style="solid",fontname="Helvetica"];
  Node2 [label="simple::read_node::\largument",height=0.2,width=0.4,color="black", fillcolor="white", style="filled",URL="$classsimple_1_1read__node.html#aa17e7eef42509f6f9de618cab92c1897"];
}
