digraph "basic_ast_visitor"
{
  edge [fontname="Helvetica",fontsize="10",labelfontname="Helvetica",labelfontsize="10"];
  node [fontname="Helvetica",fontsize="10",shape=record];
  Node1 [label="{basic_ast_visitor\n|# _compiler\l|+ ~basic_ast_visitor()\l+ do_nil_node()\l+ do_data_node()\l+ do_composite_node()\l+ do_sequence_node()\l+ do_integer_node()\l+ do_double_node()\l+ do_string_node()\l+ do_identifier_node()\l+ do_neg_node()\land 21 more...\l# basic_ast_visitor()\l# debug()\l# os()\l}",height=0.2,width=0.4,color="black", fillcolor="grey75", style="filled", fontcolor="black"];
}
