digraph "simple::xml_writer::do_if_else_node"
{
  edge [fontname="Helvetica",fontsize="10",labelfontname="Helvetica",labelfontsize="10"];
  node [fontname="Helvetica",fontsize="10",shape=record];
  rankdir="LR";
  Node1 [label="simple::xml_writer\l::do_if_else_node",height=0.2,width=0.4,color="black", fillcolor="grey75", style="filled", fontcolor="black"];
  Node1 -> Node2 [color="midnightblue",fontsize="10",style="solid",fontname="Helvetica"];
  Node2 [label="simple::xml_writer\l::closeTag",height=0.2,width=0.4,color="black", fillcolor="white", style="filled",URL="$classsimple_1_1xml__writer.html#a661cd7c508b612a8789ed66e23ad8ff8"];
  Node2 -> Node3 [color="midnightblue",fontsize="10",style="solid",fontname="Helvetica"];
  Node3 [label="basic_ast_visitor::os",height=0.2,width=0.4,color="black", fillcolor="white", style="filled",URL="$classbasic__ast__visitor.html#ab81ab147fe687470c3e8f9ebfd2ca6f9"];
  Node1 -> Node4 [color="midnightblue",fontsize="10",style="solid",fontname="Helvetica"];
  Node4 [label="simple::if_else_node\l::condition",height=0.2,width=0.4,color="black", fillcolor="white", style="filled",URL="$classsimple_1_1if__else__node.html#a0079e9c582acbe4575734ec7341b7977"];
  Node1 -> Node5 [color="midnightblue",fontsize="10",style="solid",fontname="Helvetica"];
  Node5 [label="simple::if_else_node\l::elseblock",height=0.2,width=0.4,color="black", fillcolor="white", style="filled",URL="$classsimple_1_1if__else__node.html#a51c14ec9c3d19e5e45a8bdeaa999df72"];
  Node1 -> Node6 [color="midnightblue",fontsize="10",style="solid",fontname="Helvetica"];
  Node6 [label="simple::xml_writer\l::openTag",height=0.2,width=0.4,color="black", fillcolor="white", style="filled",URL="$classsimple_1_1xml__writer.html#a7f674d53fc10d9ecfc9a6369d5a65d6d"];
  Node6 -> Node3 [color="midnightblue",fontsize="10",style="solid",fontname="Helvetica"];
  Node1 -> Node7 [color="midnightblue",fontsize="10",style="solid",fontname="Helvetica"];
  Node7 [label="simple::if_else_node\l::thenblock",height=0.2,width=0.4,color="black", fillcolor="white", style="filled",URL="$classsimple_1_1if__else__node.html#a5f440f43ff524610b4ad6a576fd1a18a"];
}
