digraph "ast/if_else_node.h"
{
  edge [fontname="Helvetica",fontsize="10",labelfontname="Helvetica",labelfontsize="10"];
  node [fontname="Helvetica",fontsize="10",shape=record];
  Node1 [label="ast/if_else_node.h",height=0.2,width=0.4,color="black", fillcolor="grey75", style="filled", fontcolor="black"];
  Node1 -> Node2 [dir="back",color="midnightblue",fontsize="10",style="solid",fontname="Helvetica"];
  Node2 [label="ast/all.h",height=0.2,width=0.4,color="black", fillcolor="white", style="filled",URL="$all_8h.html"];
  Node2 -> Node3 [dir="back",color="midnightblue",fontsize="10",style="solid",fontname="Helvetica"];
  Node3 [label="targets/basic_ast_visitor.h",height=0.2,width=0.4,color="black", fillcolor="white", style="filled",URL="$basic__ast__visitor_8h.html"];
  Node3 -> Node4 [dir="back",color="midnightblue",fontsize="10",style="solid",fontname="Helvetica"];
  Node4 [label="targets/c_writer.h",height=0.2,width=0.4,color="black", fillcolor="white", style="filled",URL="$c__writer_8h.html"];
  Node4 -> Node5 [dir="back",color="midnightblue",fontsize="10",style="solid",fontname="Helvetica"];
  Node5 [label="targets/c_target.h",height=0.2,width=0.4,color="black", fillcolor="white", style="filled",URL="$c__target_8h.html"];
  Node5 -> Node6 [dir="back",color="midnightblue",fontsize="10",style="solid",fontname="Helvetica"];
  Node6 [label="targets/c_target.cpp",height=0.2,width=0.4,color="black", fillcolor="white", style="filled",URL="$c__target_8cpp.html"];
  Node4 -> Node7 [dir="back",color="midnightblue",fontsize="10",style="solid",fontname="Helvetica"];
  Node7 [label="targets/c_writer.cpp",height=0.2,width=0.4,color="black", fillcolor="white", style="filled",URL="$c__writer_8cpp.html"];
  Node3 -> Node8 [dir="back",color="midnightblue",fontsize="10",style="solid",fontname="Helvetica"];
  Node8 [label="targets/type_checker.h",height=0.2,width=0.4,color="black", fillcolor="white", style="filled",URL="$type__checker_8h.html"];
  Node8 -> Node7 [dir="back",color="midnightblue",fontsize="10",style="solid",fontname="Helvetica"];
  Node8 -> Node9 [dir="back",color="midnightblue",fontsize="10",style="solid",fontname="Helvetica"];
  Node9 [label="targets/english_writer.cpp",height=0.2,width=0.4,color="black", fillcolor="white", style="filled",URL="$english__writer_8cpp.html"];
  Node8 -> Node10 [dir="back",color="midnightblue",fontsize="10",style="solid",fontname="Helvetica"];
  Node10 [label="targets/interpreter.cpp",height=0.2,width=0.4,color="black", fillcolor="white", style="filled",URL="$interpreter_8cpp.html"];
  Node8 -> Node11 [dir="back",color="midnightblue",fontsize="10",style="solid",fontname="Helvetica"];
  Node11 [label="targets/postfix_writer.cpp",height=0.2,width=0.4,color="black", fillcolor="white", style="filled",URL="$postfix__writer_8cpp.html"];
  Node8 -> Node12 [dir="back",color="midnightblue",fontsize="10",style="solid",fontname="Helvetica"];
  Node12 [label="targets/type_checker.cpp",height=0.2,width=0.4,color="black", fillcolor="white", style="filled",URL="$type__checker_8cpp.html"];
  Node8 -> Node13 [dir="back",color="midnightblue",fontsize="10",style="solid",fontname="Helvetica"];
  Node13 [label="targets/xml_writer.cpp",height=0.2,width=0.4,color="black", fillcolor="white", style="filled",URL="$xml__writer_8cpp.html"];
  Node3 -> Node14 [dir="back",color="midnightblue",fontsize="10",style="solid",fontname="Helvetica"];
  Node14 [label="targets/english_writer.h",height=0.2,width=0.4,color="black", fillcolor="white", style="filled",URL="$english__writer_8h.html"];
  Node14 -> Node15 [dir="back",color="midnightblue",fontsize="10",style="solid",fontname="Helvetica"];
  Node15 [label="targets/english_target.h",height=0.2,width=0.4,color="black", fillcolor="white", style="filled",URL="$english__target_8h.html"];
  Node15 -> Node16 [dir="back",color="midnightblue",fontsize="10",style="solid",fontname="Helvetica"];
  Node16 [label="targets/english_target.cpp",height=0.2,width=0.4,color="black", fillcolor="white", style="filled",URL="$english__target_8cpp.html"];
  Node14 -> Node9 [dir="back",color="midnightblue",fontsize="10",style="solid",fontname="Helvetica"];
  Node3 -> Node17 [dir="back",color="midnightblue",fontsize="10",style="solid",fontname="Helvetica"];
  Node17 [label="targets/interpreter.h",height=0.2,width=0.4,color="black", fillcolor="white", style="filled",URL="$interpreter_8h.html"];
  Node17 -> Node10 [dir="back",color="midnightblue",fontsize="10",style="solid",fontname="Helvetica"];
  Node17 -> Node18 [dir="back",color="midnightblue",fontsize="10",style="solid",fontname="Helvetica"];
  Node18 [label="targets/interpreter\l_target.h",height=0.2,width=0.4,color="black", fillcolor="white", style="filled",URL="$interpreter__target_8h.html"];
  Node18 -> Node19 [dir="back",color="midnightblue",fontsize="10",style="solid",fontname="Helvetica"];
  Node19 [label="targets/interpreter\l_target.cpp",height=0.2,width=0.4,color="black", fillcolor="white", style="filled",URL="$interpreter__target_8cpp.html"];
  Node3 -> Node20 [dir="back",color="midnightblue",fontsize="10",style="solid",fontname="Helvetica"];
  Node20 [label="targets/postfix_writer.h",height=0.2,width=0.4,color="black", fillcolor="white", style="filled",URL="$postfix__writer_8h.html"];
  Node20 -> Node21 [dir="back",color="midnightblue",fontsize="10",style="solid",fontname="Helvetica"];
  Node21 [label="targets/postfix_target.h",height=0.2,width=0.4,color="black", fillcolor="white", style="filled",URL="$postfix__target_8h.html"];
  Node21 -> Node22 [dir="back",color="midnightblue",fontsize="10",style="solid",fontname="Helvetica"];
  Node22 [label="targets/postfix_target.cpp",height=0.2,width=0.4,color="black", fillcolor="white", style="filled",URL="$postfix__target_8cpp.html"];
  Node20 -> Node11 [dir="back",color="midnightblue",fontsize="10",style="solid",fontname="Helvetica"];
  Node3 -> Node23 [dir="back",color="midnightblue",fontsize="10",style="solid",fontname="Helvetica"];
  Node23 [label="targets/xml_writer.h",height=0.2,width=0.4,color="black", fillcolor="white", style="filled",URL="$xml__writer_8h.html"];
  Node23 -> Node24 [dir="back",color="midnightblue",fontsize="10",style="solid",fontname="Helvetica"];
  Node24 [label="targets/xml_target.h",height=0.2,width=0.4,color="black", fillcolor="white", style="filled",URL="$xml__target_8h.html"];
  Node24 -> Node25 [dir="back",color="midnightblue",fontsize="10",style="solid",fontname="Helvetica"];
  Node25 [label="targets/xml_target.cpp",height=0.2,width=0.4,color="black", fillcolor="white", style="filled",URL="$xml__target_8cpp.html"];
  Node23 -> Node13 [dir="back",color="midnightblue",fontsize="10",style="solid",fontname="Helvetica"];
  Node2 -> Node7 [dir="back",color="midnightblue",fontsize="10",style="solid",fontname="Helvetica"];
  Node2 -> Node9 [dir="back",color="midnightblue",fontsize="10",style="solid",fontname="Helvetica"];
  Node2 -> Node10 [dir="back",color="midnightblue",fontsize="10",style="solid",fontname="Helvetica"];
  Node2 -> Node11 [dir="back",color="midnightblue",fontsize="10",style="solid",fontname="Helvetica"];
  Node2 -> Node12 [dir="back",color="midnightblue",fontsize="10",style="solid",fontname="Helvetica"];
  Node2 -> Node13 [dir="back",color="midnightblue",fontsize="10",style="solid",fontname="Helvetica"];
}
