digraph "targets/type_checker.h"
{
  edge [fontname="Helvetica",fontsize="10",labelfontname="Helvetica",labelfontsize="10"];
  node [fontname="Helvetica",fontsize="10",shape=record];
  Node1 [label="targets/type_checker.h",height=0.2,width=0.4,color="black", fillcolor="grey75", style="filled", fontcolor="black"];
  Node1 -> Node2 [dir="back",color="midnightblue",fontsize="10",style="solid",fontname="Helvetica"];
  Node2 [label="targets/c_writer.cpp",height=0.2,width=0.4,color="black", fillcolor="white", style="filled",URL="$c__writer_8cpp.html"];
  Node1 -> Node3 [dir="back",color="midnightblue",fontsize="10",style="solid",fontname="Helvetica"];
  Node3 [label="targets/english_writer.cpp",height=0.2,width=0.4,color="black", fillcolor="white", style="filled",URL="$english__writer_8cpp.html"];
  Node1 -> Node4 [dir="back",color="midnightblue",fontsize="10",style="solid",fontname="Helvetica"];
  Node4 [label="targets/interpreter.cpp",height=0.2,width=0.4,color="black", fillcolor="white", style="filled",URL="$interpreter_8cpp.html"];
  Node1 -> Node5 [dir="back",color="midnightblue",fontsize="10",style="solid",fontname="Helvetica"];
  Node5 [label="targets/postfix_writer.cpp",height=0.2,width=0.4,color="black", fillcolor="white", style="filled",URL="$postfix__writer_8cpp.html"];
  Node1 -> Node6 [dir="back",color="midnightblue",fontsize="10",style="solid",fontname="Helvetica"];
  Node6 [label="targets/type_checker.cpp",height=0.2,width=0.4,color="black", fillcolor="white", style="filled",URL="$type__checker_8cpp.html"];
  Node1 -> Node7 [dir="back",color="midnightblue",fontsize="10",style="solid",fontname="Helvetica"];
  Node7 [label="targets/xml_writer.cpp",height=0.2,width=0.4,color="black", fillcolor="white", style="filled",URL="$xml__writer_8cpp.html"];
}
