digraph "cdk::postfix_ix86_emitter::DDUP"
{
  edge [fontname="Helvetica",fontsize="10",labelfontname="Helvetica",labelfontsize="10"];
  node [fontname="Helvetica",fontsize="10",shape=record];
  rankdir="LR";
  Node1 [label="cdk::postfix_ix86_emitter\l::DDUP",height=0.2,width=0.4,color="black", fillcolor="grey75", style="filled", fontcolor="black"];
  Node1 -> Node2 [color="midnightblue",fontsize="10",style="solid"];
  Node2 [label="cdk::postfix_ix86_emitter\l::DLOAD",height=0.2,width=0.4,color="black", fillcolor="white", style="filled",URL="$classcdk_1_1postfix__ix86__emitter.html#a6f06a4f97b9c77283315350344b38078"];
  Node1 -> Node3 [color="midnightblue",fontsize="10",style="solid"];
  Node3 [label="cdk::postfix_ix86_emitter::SP",height=0.2,width=0.4,color="black", fillcolor="white", style="filled",URL="$classcdk_1_1postfix__ix86__emitter.html#acf4b505ac5fefb40b0773566a4b5ebd4"];
}
