digraph "simple::postfix_writer::do_if_else_node"
{
  edge [fontname="Helvetica",fontsize="10",labelfontname="Helvetica",labelfontsize="10"];
  node [fontname="Helvetica",fontsize="10",shape=record];
  rankdir="LR";
  Node1 [label="simple::postfix_writer\l::do_if_else_node",height=0.2,width=0.4,color="black", fillcolor="grey75", style="filled", fontcolor="black"];
  Node1 -> Node2 [color="midnightblue",fontsize="10",style="solid"];
  Node2 [label="simple::if_else_node\l::condition",height=0.2,width=0.4,color="black", fillcolor="white", style="filled",URL="$classsimple_1_1if__else__node.html#a0079e9c582acbe4575734ec7341b7977"];
  Node1 -> Node3 [color="midnightblue",fontsize="10",style="solid"];
  Node3 [label="simple::if_else_node\l::elseblock",height=0.2,width=0.4,color="black", fillcolor="white", style="filled",URL="$classsimple_1_1if__else__node.html#a51c14ec9c3d19e5e45a8bdeaa999df72"];
  Node1 -> Node4 [color="midnightblue",fontsize="10",style="solid"];
  Node4 [label="simple::postfix_writer\l::mklbl",height=0.2,width=0.4,color="black", fillcolor="white", style="filled",URL="$classsimple_1_1postfix__writer.html#abaf9a8b9b899ce2b927578693266c69b"];
  Node4 -> Node5 [color="midnightblue",fontsize="10",style="solid"];
  Node5 [label="simple::postfix_writer\l::do_sequence_node",height=0.2,width=0.4,color="black", fillcolor="white", style="filled",URL="$classsimple_1_1postfix__writer.html#a827a3bdf4096eca215f536089a0681c4"];
  Node4 -> Node6 [color="midnightblue",fontsize="10",style="solid"];
  Node6 [label="simple::postfix_writer\l::do_integer_node",height=0.2,width=0.4,color="black", fillcolor="white", style="filled",URL="$classsimple_1_1postfix__writer.html#ac57d8ab62d9d9955fa8d2bf87a19d6fa"];
  Node4 -> Node7 [color="midnightblue",fontsize="10",style="solid"];
  Node7 [label="simple::postfix_writer\l::do_string_node",height=0.2,width=0.4,color="black", fillcolor="white", style="filled",URL="$classsimple_1_1postfix__writer.html#af4f648a8e7318be787b2bec14660b34c"];
  Node7 -> Node4 [color="midnightblue",fontsize="10",style="solid"];
  Node4 -> Node8 [color="midnightblue",fontsize="10",style="solid"];
  Node8 [label="simple::postfix_writer\l::do_neg_node",height=0.2,width=0.4,color="black", fillcolor="white", style="filled",URL="$classsimple_1_1postfix__writer.html#aed0e7f90a43429b4284d86c455773c3c"];
  Node4 -> Node9 [color="midnightblue",fontsize="10",style="solid"];
  Node9 [label="simple::postfix_writer\l::do_add_node",height=0.2,width=0.4,color="black", fillcolor="white", style="filled",URL="$classsimple_1_1postfix__writer.html#aecf8305914cc6797244857f20a6ca32b"];
  Node4 -> Node10 [color="midnightblue",fontsize="10",style="solid"];
  Node10 [label="simple::postfix_writer\l::do_sub_node",height=0.2,width=0.4,color="black", fillcolor="white", style="filled",URL="$classsimple_1_1postfix__writer.html#af253b73fe6867e6fc9ed55d1b7e1d380"];
  Node4 -> Node11 [color="midnightblue",fontsize="10",style="solid"];
  Node11 [label="simple::postfix_writer\l::do_mul_node",height=0.2,width=0.4,color="black", fillcolor="white", style="filled",URL="$classsimple_1_1postfix__writer.html#abd460af357ec14d68d8beff4eaf269c1"];
  Node4 -> Node12 [color="midnightblue",fontsize="10",style="solid"];
  Node12 [label="simple::postfix_writer\l::do_div_node",height=0.2,width=0.4,color="black", fillcolor="white", style="filled",URL="$classsimple_1_1postfix__writer.html#a915dbb1ee056952defc0ef5966654129"];
  Node4 -> Node13 [color="midnightblue",fontsize="10",style="solid"];
  Node13 [label="simple::postfix_writer\l::do_mod_node",height=0.2,width=0.4,color="black", fillcolor="white", style="filled",URL="$classsimple_1_1postfix__writer.html#a4c8c0fd88175c4aed22a9abae6d23a06"];
  Node4 -> Node14 [color="midnightblue",fontsize="10",style="solid"];
  Node14 [label="simple::postfix_writer\l::do_lt_node",height=0.2,width=0.4,color="black", fillcolor="white", style="filled",URL="$classsimple_1_1postfix__writer.html#a1e71edaf3400902fc809e57ef8eac320"];
  Node4 -> Node15 [color="midnightblue",fontsize="10",style="solid"];
  Node15 [label="simple::postfix_writer\l::do_le_node",height=0.2,width=0.4,color="black", fillcolor="white", style="filled",URL="$classsimple_1_1postfix__writer.html#a984a3a6da6629cf547c827215a19a220"];
  Node4 -> Node16 [color="midnightblue",fontsize="10",style="solid"];
  Node16 [label="simple::postfix_writer\l::do_ge_node",height=0.2,width=0.4,color="black", fillcolor="white", style="filled",URL="$classsimple_1_1postfix__writer.html#aa0ffe34c9f68e293dc0efd5b31d25676"];
  Node4 -> Node17 [color="midnightblue",fontsize="10",style="solid"];
  Node17 [label="simple::postfix_writer\l::do_gt_node",height=0.2,width=0.4,color="black", fillcolor="white", style="filled",URL="$classsimple_1_1postfix__writer.html#afee0241b362c974eb1a7841e05022b0b"];
  Node4 -> Node18 [color="midnightblue",fontsize="10",style="solid"];
  Node18 [label="simple::postfix_writer\l::do_ne_node",height=0.2,width=0.4,color="black", fillcolor="white", style="filled",URL="$classsimple_1_1postfix__writer.html#a08f98c7a6ca32f8fd545e65d988bcf31"];
  Node4 -> Node19 [color="midnightblue",fontsize="10",style="solid"];
  Node19 [label="simple::postfix_writer\l::do_eq_node",height=0.2,width=0.4,color="black", fillcolor="white", style="filled",URL="$classsimple_1_1postfix__writer.html#a45a501fde415a190f67563cecaa976dc"];
  Node4 -> Node20 [color="midnightblue",fontsize="10",style="solid"];
  Node20 [label="simple::postfix_writer\l::do_lvalue_node",height=0.2,width=0.4,color="black", fillcolor="white", style="filled",URL="$classsimple_1_1postfix__writer.html#a699d682491c03fcf62c14fd3105b38fc"];
  Node4 -> Node21 [color="midnightblue",fontsize="10",style="solid"];
  Node21 [label="simple::postfix_writer\l::do_rvalue_node",height=0.2,width=0.4,color="black", fillcolor="white", style="filled",URL="$classsimple_1_1postfix__writer.html#a9b289c6bca08a087bc23acfc8c349e6a"];
  Node21 -> Node22 [color="midnightblue",fontsize="10",style="solid"];
  Node22 [label="simple::rvalue_node\l::lvalue",height=0.2,width=0.4,color="black", fillcolor="white", style="filled",URL="$classsimple_1_1rvalue__node.html#aebfbbc9fb037dc1f8561781955adc6f5"];
  Node4 -> Node23 [color="midnightblue",fontsize="10",style="solid"];
  Node23 [label="simple::postfix_writer\l::do_program_node",height=0.2,width=0.4,color="black", fillcolor="white", style="filled",URL="$classsimple_1_1postfix__writer.html#a5241a2a6ba45378d235396572193b1e5"];
  Node23 -> Node24 [color="midnightblue",fontsize="10",style="solid"];
  Node24 [label="simple::program_node\l::statements",height=0.2,width=0.4,color="black", fillcolor="white", style="filled",URL="$classsimple_1_1program__node.html#a45e3487f0bd4ce8892f4a5b04273fa90"];
  Node4 -> Node25 [color="midnightblue",fontsize="10",style="solid"];
  Node25 [label="simple::postfix_writer\l::do_evaluation_node",height=0.2,width=0.4,color="black", fillcolor="white", style="filled",URL="$classsimple_1_1postfix__writer.html#a98de0ef40e8640f01f05bda169941181"];
  Node25 -> Node26 [color="midnightblue",fontsize="10",style="solid"];
  Node26 [label="simple::evaluation\l_node::argument",height=0.2,width=0.4,color="black", fillcolor="white", style="filled",URL="$classsimple_1_1evaluation__node.html#aca8880de7c9a29f7928798493a6f9dbd"];
  Node4 -> Node27 [color="midnightblue",fontsize="10",style="solid"];
  Node27 [label="simple::postfix_writer\l::do_print_node",height=0.2,width=0.4,color="black", fillcolor="white", style="filled",URL="$classsimple_1_1postfix__writer.html#a77515c811f201a6ce67203f7bec0ee91"];
  Node27 -> Node28 [color="midnightblue",fontsize="10",style="solid"];
  Node28 [label="simple::print_node\l::argument",height=0.2,width=0.4,color="black", fillcolor="white", style="filled",URL="$classsimple_1_1print__node.html#aeb4e81e2fefe12a78203ec6221f9751b"];
  Node4 -> Node29 [color="midnightblue",fontsize="10",style="solid"];
  Node29 [label="simple::postfix_writer\l::do_read_node",height=0.2,width=0.4,color="black", fillcolor="white", style="filled",URL="$classsimple_1_1postfix__writer.html#af8fe0d4da01d11fe712d2549b947d3ee"];
  Node29 -> Node30 [color="midnightblue",fontsize="10",style="solid"];
  Node30 [label="simple::read_node::\largument",height=0.2,width=0.4,color="black", fillcolor="white", style="filled",URL="$classsimple_1_1read__node.html#aa17e7eef42509f6f9de618cab92c1897"];
  Node29 -> Node31 [color="midnightblue",fontsize="10",style="solid"];
  Node31 [label="simple::lvalue_node\l::accept",height=0.2,width=0.4,color="black", fillcolor="white", style="filled",URL="$classsimple_1_1lvalue__node.html#a3b7448f6fb9feb2269abaece29931b75"];
  Node31 -> Node32 [color="midnightblue",fontsize="10",style="solid"];
  Node32 [label="basic_ast_visitor::\ldo_lvalue_node",height=0.2,width=0.4,color="black", fillcolor="white", style="filled",URL="$classbasic__ast__visitor.html#ad75c60b05a05b69760a1e0e19f5f0e75"];
  Node4 -> Node33 [color="midnightblue",fontsize="10",style="solid"];
  Node33 [label="simple::postfix_writer\l::do_assignment_node",height=0.2,width=0.4,color="black", fillcolor="white", style="filled",URL="$classsimple_1_1postfix__writer.html#adb6ea4933b09860e3195e61b0bd3a45b"];
  Node33 -> Node31 [color="midnightblue",fontsize="10",style="solid"];
  Node33 -> Node34 [color="midnightblue",fontsize="10",style="solid"];
  Node34 [label="simple::assignment\l_node::lvalue",height=0.2,width=0.4,color="black", fillcolor="white", style="filled",URL="$classsimple_1_1assignment__node.html#a252caa7668723625ab405acbe229269c"];
  Node33 -> Node35 [color="midnightblue",fontsize="10",style="solid"];
  Node35 [label="simple::assignment\l_node::rvalue",height=0.2,width=0.4,color="black", fillcolor="white", style="filled",URL="$classsimple_1_1assignment__node.html#a8b9c8ee6f5e1cf3e741b1fc93bbcd714"];
  Node4 -> Node36 [color="midnightblue",fontsize="10",style="solid"];
  Node36 [label="simple::postfix_writer\l::do_while_node",height=0.2,width=0.4,color="black", fillcolor="white", style="filled",URL="$classsimple_1_1postfix__writer.html#ae06d01708da06b364a98736b2a4225ff"];
  Node36 -> Node4 [color="midnightblue",fontsize="10",style="solid"];
  Node36 -> Node37 [color="midnightblue",fontsize="10",style="solid"];
  Node37 [label="simple::while_node\l::condition",height=0.2,width=0.4,color="black", fillcolor="white", style="filled",URL="$classsimple_1_1while__node.html#a24f3b11ef8ecdc3bc82e9df7cbfd8729"];
  Node36 -> Node38 [color="midnightblue",fontsize="10",style="solid"];
  Node38 [label="simple::while_node\l::block",height=0.2,width=0.4,color="black", fillcolor="white", style="filled",URL="$classsimple_1_1while__node.html#aba79b46fee5df11ea5a7c11a7a1cc5ed"];
  Node4 -> Node39 [color="midnightblue",fontsize="10",style="solid"];
  Node39 [label="simple::postfix_writer\l::do_if_node",height=0.2,width=0.4,color="black", fillcolor="white", style="filled",URL="$classsimple_1_1postfix__writer.html#aa1f4707e0c2b87ca5c2f70cc844d260b"];
  Node39 -> Node40 [color="midnightblue",fontsize="10",style="solid"];
  Node40 [label="simple::if_node::condition",height=0.2,width=0.4,color="black", fillcolor="white", style="filled",URL="$classsimple_1_1if__node.html#afd0ccdc308d0b95067596d2b2e866497"];
  Node39 -> Node4 [color="midnightblue",fontsize="10",style="solid"];
  Node39 -> Node41 [color="midnightblue",fontsize="10",style="solid"];
  Node41 [label="simple::if_node::block",height=0.2,width=0.4,color="black", fillcolor="white", style="filled",URL="$classsimple_1_1if__node.html#a3cd028c32ea507f915d1f849ae78a83d"];
  Node4 -> Node1 [color="midnightblue",fontsize="10",style="solid"];
  Node1 -> Node42 [color="midnightblue",fontsize="10",style="solid"];
  Node42 [label="simple::if_else_node\l::thenblock",height=0.2,width=0.4,color="black", fillcolor="white", style="filled",URL="$classsimple_1_1if__else__node.html#a5f440f43ff524610b4ad6a576fd1a18a"];
}
