digraph "targets" {
  compound=true
  node [ fontsize="10", fontname="Helvetica"];
  edge [ labelfontsize="10", labelfontname="Helvetica"];
  dir_0b1b62fddf6df8c66e0bcbb711b1f333 [shape=box, label="targets", style="filled", fillcolor="#eeeeff", pencolor="black", URL="dir_0b1b62fddf6df8c66e0bcbb711b1f333.html"];
  dir_abffb41b2fb02e852dda76d88b79b6c6 [shape=box label="ast" URL="dir_abffb41b2fb02e852dda76d88b79b6c6.html"];
  dir_0b1b62fddf6df8c66e0bcbb711b1f333->dir_abffb41b2fb02e852dda76d88b79b6c6 [headlabel="7", labeldistance=1.5 headhref="dir_000001_000000.html"];
}
