digraph "targets/english_writer.h"
{
  edge [fontname="Helvetica",fontsize="10",labelfontname="Helvetica",labelfontsize="10"];
  node [fontname="Helvetica",fontsize="10",shape=record];
  Node1 [label="targets/english_writer.h",height=0.2,width=0.4,color="black", fillcolor="grey75", style="filled", fontcolor="black"];
  Node1 -> Node2 [dir="back",color="midnightblue",fontsize="10",style="solid"];
  Node2 [label="targets/english_target.h",height=0.2,width=0.4,color="black", fillcolor="white", style="filled",URL="$english__target_8h.html"];
  Node2 -> Node3 [dir="back",color="midnightblue",fontsize="10",style="solid"];
  Node3 [label="targets/english_target.cpp",height=0.2,width=0.4,color="black", fillcolor="white", style="filled",URL="$english__target_8cpp.html"];
  Node1 -> Node4 [dir="back",color="midnightblue",fontsize="10",style="solid"];
  Node4 [label="targets/english_writer.cpp",height=0.2,width=0.4,color="black", fillcolor="white", style="filled",URL="$english__writer_8cpp.html"];
}
