digraph "cdk::basic_factory::~basic_factory"
{
  edge [fontname="Helvetica",fontsize="10",labelfontname="Helvetica",labelfontsize="10"];
  node [fontname="Helvetica",fontsize="10",shape=record];
  rankdir="LR";
  Node1 [label="cdk::basic_factory\l::~basic_factory",height=0.2,width=0.4,color="black", fillcolor="grey75", style="filled", fontcolor="black"];
  Node1 -> Node2 [color="midnightblue",fontsize="10",style="solid",fontname="Helvetica"];
  Node2 [label="cdk::basic_factory\l::create_parser",height=0.2,width=0.4,color="black", fillcolor="white", style="filled",URL="$classcdk_1_1basic__factory.html#afc8f88801455bf131cc4039271e6b741"];
  Node1 -> Node3 [color="midnightblue",fontsize="10",style="solid",fontname="Helvetica"];
  Node3 [label="cdk::basic_factory\l::create_scanner",height=0.2,width=0.4,color="black", fillcolor="white", style="filled",URL="$classcdk_1_1basic__factory.html#a25f3a81be472baccf2ab5ffb2f363608"];
}
