digraph "cdk::simple_value_node&lt; StoredType &gt;"
{
  edge [fontname="Helvetica",fontsize="10",labelfontname="Helvetica",labelfontsize="10"];
  node [fontname="Helvetica",fontsize="10",shape=record];
  Node1 [label="{cdk::simple_value_node\l\< StoredType \>\n||+ value()\l# simple_value_node()\l}",height=0.2,width=0.4,color="black", fillcolor="grey75", style="filled", fontcolor="black"];
  Node2 -> Node1 [dir="back",color="midnightblue",fontsize="10",style="solid",arrowtail="onormal",fontname="Helvetica"];
  Node2 [label="{cdk::expression_node\n|# _type\l|+ expression_node()\l+ type()\l+ type()\l}",height=0.2,width=0.4,color="black", fillcolor="white", style="filled",URL="$classcdk_1_1expression__node.html"];
  Node3 -> Node2 [dir="back",color="midnightblue",fontsize="10",style="solid",arrowtail="onormal",fontname="Helvetica"];
  Node3 [label="{cdk::basic_node\n||+ ~basic_node()\l+ lineno()\l+ name()\l+ accept()\l# basic_node()\l}",height=0.2,width=0.4,color="black", fillcolor="white", style="filled",URL="$classcdk_1_1basic__node.html"];
  Node1 -> Node4 [dir="back",color="orange",fontsize="10",style="solid",label=" \< double \>" ,fontname="Helvetica"];
  Node4 [label="{cdk::simple_value_node\l\< double \>\n||+ value()\l# simple_value_node()\l}",height=0.2,width=0.4,color="black", fillcolor="white", style="filled",URL="$classcdk_1_1simple__value__node.html"];
  Node4 -> Node5 [dir="back",color="midnightblue",fontsize="10",style="solid",arrowtail="onormal",fontname="Helvetica"];
  Node5 [label="{cdk::double_node\n||+ double_node()\l+ accept()\l}",height=0.2,width=0.4,color="black", fillcolor="white", style="filled",URL="$classcdk_1_1double__node.html"];
  Node1 -> Node6 [dir="back",color="orange",fontsize="10",style="solid",label=" \< std::string \>" ,fontname="Helvetica"];
  Node6 [label="{cdk::simple_value_node\l\< std::string \>\n||+ value()\l# simple_value_node()\l}",height=0.2,width=0.4,color="black", fillcolor="white", style="filled",URL="$classcdk_1_1simple__value__node.html"];
  Node6 -> Node7 [dir="back",color="midnightblue",fontsize="10",style="solid",arrowtail="onormal",fontname="Helvetica"];
  Node7 [label="{cdk::identifier_node\n||+ identifier_node()\l+ identifier_node()\l+ identifier_node()\l+ accept()\l}",height=0.2,width=0.4,color="black", fillcolor="white", style="filled",URL="$classcdk_1_1identifier__node.html"];
  Node6 -> Node8 [dir="back",color="midnightblue",fontsize="10",style="solid",arrowtail="onormal",fontname="Helvetica"];
  Node8 [label="{cdk::string_node\n||+ string_node()\l+ string_node()\l+ string_node()\l+ accept()\l}",height=0.2,width=0.4,color="black", fillcolor="white", style="filled",URL="$classcdk_1_1string__node.html"];
  Node1 -> Node9 [dir="back",color="orange",fontsize="10",style="solid",label=" \< int \>" ,fontname="Helvetica"];
  Node9 [label="{cdk::simple_value_node\l\< int \>\n||+ value()\l# simple_value_node()\l}",height=0.2,width=0.4,color="black", fillcolor="white", style="filled",URL="$classcdk_1_1simple__value__node.html"];
  Node9 -> Node10 [dir="back",color="midnightblue",fontsize="10",style="solid",arrowtail="onormal",fontname="Helvetica"];
  Node10 [label="{cdk::integer_node\n||+ integer_node()\l+ accept()\l}",height=0.2,width=0.4,color="black", fillcolor="white", style="filled",URL="$classcdk_1_1integer__node.html"];
}
