digraph "cdk::double_node"
{
  edge [fontname="Helvetica",fontsize="10",labelfontname="Helvetica",labelfontsize="10"];
  node [fontname="Helvetica",fontsize="10",shape=record];
  Node1 [label="{cdk::double_node\n||+ double_node()\l+ accept()\l}",height=0.2,width=0.4,color="black", fillcolor="grey75", style="filled", fontcolor="black"];
  Node2 -> Node1 [dir="back",color="midnightblue",fontsize="10",style="solid",arrowtail="onormal",fontname="Helvetica"];
  Node2 [label="{cdk::simple_value_node\l\< double \>\n||+ value()\l# simple_value_node()\l}",height=0.2,width=0.4,color="black", fillcolor="white", style="filled",URL="$classcdk_1_1simple__value__node.html"];
  Node3 -> Node2 [dir="back",color="midnightblue",fontsize="10",style="solid",arrowtail="onormal",fontname="Helvetica"];
  Node3 [label="{cdk::expression_node\n||+ expression_node()\l+ type()\l+ type()\l}",height=0.2,width=0.4,color="black", fillcolor="white", style="filled",URL="$classcdk_1_1expression__node.html"];
  Node4 -> Node3 [dir="back",color="midnightblue",fontsize="10",style="solid",arrowtail="onormal",fontname="Helvetica"];
  Node4 [label="{cdk::basic_node\n||+ ~basic_node()\l+ lineno()\l+ name()\l+ accept()\l# basic_node()\l}",height=0.2,width=0.4,color="black", fillcolor="white", style="filled",URL="$classcdk_1_1basic__node.html"];
  Node5 -> Node3 [color="grey25",fontsize="10",style="solid",label=" #_type" ,arrowhead="odiamond",fontname="Helvetica"];
  Node5 [label="{basic_type\n|+ _size\l+ _name\l+ TYPE_UNSPEC\l+ TYPE_INT\l+ TYPE_DOUBLE\l+ TYPE_BOOLEAN\l+ TYPE_STRING\l+ TYPE_POINTER\l+ TYPE_STRUCT\l+ TYPE_VOID\l+ TYPE_ERROR\l|+ basic_type()\l+ basic_type()\l+ size()\l+ name()\l+ subtype()\l}",height=0.2,width=0.4,color="black", fillcolor="white", style="filled",URL="$structbasic__type.html"];
  Node5 -> Node5 [color="grey25",fontsize="10",style="solid",label=" +_subtype" ,arrowhead="odiamond",fontname="Helvetica"];
  Node6 -> Node2 [dir="back",color="orange",fontsize="10",style="solid",label=" \< double \>" ,fontname="Helvetica"];
  Node6 [label="{cdk::simple_value_node\l\< StoredType \>\n||+ value()\l# simple_value_node()\l}",height=0.2,width=0.4,color="black", fillcolor="white", style="filled",URL="$classcdk_1_1simple__value__node.html"];
  Node3 -> Node6 [dir="back",color="midnightblue",fontsize="10",style="solid",arrowtail="onormal",fontname="Helvetica"];
}
