digraph "cdk::basic_parser"
{
  edge [fontname="Helvetica",fontsize="10",labelfontname="Helvetica",labelfontsize="10"];
  node [fontname="Helvetica",fontsize="10",shape=record];
  Node1 [label="{cdk::basic_parser\n|# _language\l# _compiler\l# _scanner\l|+ ~basic_parser()\l+ owner()\l+ scanner()\l+ scanner()\l+ parse()\l# basic_parser()\l}",height=0.2,width=0.4,color="black", fillcolor="grey75", style="filled", fontcolor="black"];
}
