digraph "Graphical Class Hierarchy"
{
  edge [fontname="Helvetica",fontsize="10",labelfontname="Helvetica",labelfontsize="10"];
  node [fontname="Helvetica",fontsize="10",shape=record];
  rankdir="LR";
  Node1 [label="cdk::basic_node",height=0.2,width=0.4,color="black", fillcolor="white", style="filled",URL="$classcdk_1_1basic__node.html"];
  Node1 -> Node2 [dir="back",color="midnightblue",fontsize="10",style="solid",fontname="Helvetica"];
  Node2 [label="cdk::composite_node",height=0.2,width=0.4,color="black", fillcolor="white", style="filled",URL="$classcdk_1_1composite__node.html"];
  Node1 -> Node3 [dir="back",color="midnightblue",fontsize="10",style="solid",fontname="Helvetica"];
  Node3 [label="cdk::data_node",height=0.2,width=0.4,color="black", fillcolor="white", style="filled",URL="$classcdk_1_1data__node.html"];
  Node1 -> Node4 [dir="back",color="midnightblue",fontsize="10",style="solid",fontname="Helvetica"];
  Node4 [label="cdk::expression_node",height=0.2,width=0.4,color="black", fillcolor="white", style="filled",URL="$classcdk_1_1expression__node.html"];
  Node4 -> Node5 [dir="back",color="midnightblue",fontsize="10",style="solid",fontname="Helvetica"];
  Node5 [label="cdk::binary_expression_node",height=0.2,width=0.4,color="black", fillcolor="white", style="filled",URL="$classcdk_1_1binary__expression__node.html"];
  Node5 -> Node6 [dir="back",color="midnightblue",fontsize="10",style="solid",fontname="Helvetica"];
  Node6 [label="cdk::add_node",height=0.2,width=0.4,color="black", fillcolor="white", style="filled",URL="$classcdk_1_1add__node.html"];
  Node5 -> Node7 [dir="back",color="midnightblue",fontsize="10",style="solid",fontname="Helvetica"];
  Node7 [label="cdk::div_node",height=0.2,width=0.4,color="black", fillcolor="white", style="filled",URL="$classcdk_1_1div__node.html"];
  Node5 -> Node8 [dir="back",color="midnightblue",fontsize="10",style="solid",fontname="Helvetica"];
  Node8 [label="cdk::eq_node",height=0.2,width=0.4,color="black", fillcolor="white", style="filled",URL="$classcdk_1_1eq__node.html"];
  Node5 -> Node9 [dir="back",color="midnightblue",fontsize="10",style="solid",fontname="Helvetica"];
  Node9 [label="cdk::ge_node",height=0.2,width=0.4,color="black", fillcolor="white", style="filled",URL="$classcdk_1_1ge__node.html"];
  Node5 -> Node10 [dir="back",color="midnightblue",fontsize="10",style="solid",fontname="Helvetica"];
  Node10 [label="cdk::gt_node",height=0.2,width=0.4,color="black", fillcolor="white", style="filled",URL="$classcdk_1_1gt__node.html"];
  Node5 -> Node11 [dir="back",color="midnightblue",fontsize="10",style="solid",fontname="Helvetica"];
  Node11 [label="cdk::le_node",height=0.2,width=0.4,color="black", fillcolor="white", style="filled",URL="$classcdk_1_1le__node.html"];
  Node5 -> Node12 [dir="back",color="midnightblue",fontsize="10",style="solid",fontname="Helvetica"];
  Node12 [label="cdk::lt_node",height=0.2,width=0.4,color="black", fillcolor="white", style="filled",URL="$classcdk_1_1lt__node.html"];
  Node5 -> Node13 [dir="back",color="midnightblue",fontsize="10",style="solid",fontname="Helvetica"];
  Node13 [label="cdk::mod_node",height=0.2,width=0.4,color="black", fillcolor="white", style="filled",URL="$classcdk_1_1mod__node.html"];
  Node5 -> Node14 [dir="back",color="midnightblue",fontsize="10",style="solid",fontname="Helvetica"];
  Node14 [label="cdk::mul_node",height=0.2,width=0.4,color="black", fillcolor="white", style="filled",URL="$classcdk_1_1mul__node.html"];
  Node5 -> Node15 [dir="back",color="midnightblue",fontsize="10",style="solid",fontname="Helvetica"];
  Node15 [label="cdk::ne_node",height=0.2,width=0.4,color="black", fillcolor="white", style="filled",URL="$classcdk_1_1ne__node.html"];
  Node5 -> Node16 [dir="back",color="midnightblue",fontsize="10",style="solid",fontname="Helvetica"];
  Node16 [label="cdk::sub_node",height=0.2,width=0.4,color="black", fillcolor="white", style="filled",URL="$classcdk_1_1sub__node.html"];
  Node4 -> Node17 [dir="back",color="midnightblue",fontsize="10",style="solid",fontname="Helvetica"];
  Node17 [label="cdk::simple_value_node\l\< StoredType \>",height=0.2,width=0.4,color="black", fillcolor="white", style="filled",URL="$classcdk_1_1simple__value__node.html"];
  Node4 -> Node18 [dir="back",color="midnightblue",fontsize="10",style="solid",fontname="Helvetica"];
  Node18 [label="cdk::unary_expression_node",height=0.2,width=0.4,color="black", fillcolor="white", style="filled",URL="$classcdk_1_1unary__expression__node.html"];
  Node18 -> Node19 [dir="back",color="midnightblue",fontsize="10",style="solid",fontname="Helvetica"];
  Node19 [label="cdk::neg_node",height=0.2,width=0.4,color="black", fillcolor="white", style="filled",URL="$classcdk_1_1neg__node.html"];
  Node4 -> Node20 [dir="back",color="midnightblue",fontsize="10",style="solid",fontname="Helvetica"];
  Node20 [label="cdk::simple_value_node\l\< double \>",height=0.2,width=0.4,color="black", fillcolor="white", style="filled",URL="$classcdk_1_1simple__value__node.html"];
  Node20 -> Node21 [dir="back",color="midnightblue",fontsize="10",style="solid",fontname="Helvetica"];
  Node21 [label="cdk::double_node",height=0.2,width=0.4,color="black", fillcolor="white", style="filled",URL="$classcdk_1_1double__node.html"];
  Node4 -> Node22 [dir="back",color="midnightblue",fontsize="10",style="solid",fontname="Helvetica"];
  Node22 [label="cdk::simple_value_node\l\< int \>",height=0.2,width=0.4,color="black", fillcolor="white", style="filled",URL="$classcdk_1_1simple__value__node.html"];
  Node22 -> Node23 [dir="back",color="midnightblue",fontsize="10",style="solid",fontname="Helvetica"];
  Node23 [label="cdk::integer_node",height=0.2,width=0.4,color="black", fillcolor="white", style="filled",URL="$classcdk_1_1integer__node.html"];
  Node4 -> Node24 [dir="back",color="midnightblue",fontsize="10",style="solid",fontname="Helvetica"];
  Node24 [label="cdk::simple_value_node\l\< std::string \>",height=0.2,width=0.4,color="black", fillcolor="white", style="filled",URL="$classcdk_1_1simple__value__node.html"];
  Node24 -> Node25 [dir="back",color="midnightblue",fontsize="10",style="solid",fontname="Helvetica"];
  Node25 [label="cdk::identifier_node",height=0.2,width=0.4,color="black", fillcolor="white", style="filled",URL="$classcdk_1_1identifier__node.html"];
  Node24 -> Node26 [dir="back",color="midnightblue",fontsize="10",style="solid",fontname="Helvetica"];
  Node26 [label="cdk::string_node",height=0.2,width=0.4,color="black", fillcolor="white", style="filled",URL="$classcdk_1_1string__node.html"];
  Node1 -> Node27 [dir="back",color="midnightblue",fontsize="10",style="solid",fontname="Helvetica"];
  Node27 [label="cdk::nil_node",height=0.2,width=0.4,color="black", fillcolor="white", style="filled",URL="$classcdk_1_1nil__node.html"];
  Node1 -> Node28 [dir="back",color="midnightblue",fontsize="10",style="solid",fontname="Helvetica"];
  Node28 [label="cdk::sequence_node",height=0.2,width=0.4,color="black", fillcolor="white", style="filled",URL="$classcdk_1_1sequence__node.html"];
}
